\relax 
\providecommand\hyper@newdestlabel[2]{}
\providecommand\HyperFirstAtBeginDocument{\AtBeginDocument}
\HyperFirstAtBeginDocument{\ifx\hyper@anchor\@undefined
\global\let\oldcontentsline\contentsline
\gdef\contentsline#1#2#3#4{\oldcontentsline{#1}{#2}{#3}}
\global\let\oldnewlabel\newlabel
\gdef\newlabel#1#2{\newlabelxx{#1}#2}
\gdef\newlabelxx#1#2#3#4#5#6{\oldnewlabel{#1}{{#2}{#3}}}
\AtEndDocument{\ifx\hyper@anchor\@undefined
\let\contentsline\oldcontentsline
\let\newlabel\oldnewlabel
\fi}
\fi}
\global\let\hyper@last\relax 
\gdef\HyperFirstAtBeginDocument#1{#1}
\providecommand\HyField@AuxAddToFields[1]{}
\providecommand\HyField@AuxAddToCoFields[2]{}
\@writefile{toc}{\contentsline {section}{\numberline {1}Introduction}{1}{section.1}\protected@file@percent }
\@writefile{toc}{\contentsline {subsection}{\numberline {1.1}What is data mining?}{1}{subsection.1.1}\protected@file@percent }
\@writefile{toc}{\contentsline {subsection}{\numberline {1.2}Models}{1}{subsection.1.2}\protected@file@percent }
\@writefile{toc}{\contentsline {section}{\numberline {2}Data}{2}{section.2}\protected@file@percent }
\@writefile{toc}{\contentsline {subsection}{\numberline {2.1}Characteristics of data}{2}{subsection.2.1}\protected@file@percent }
\@writefile{toc}{\contentsline {subsection}{\numberline {2.2}Types of data}{2}{subsection.2.2}\protected@file@percent }
\@writefile{toc}{\contentsline {subsection}{\numberline {2.3}Statistical descriptions of data}{3}{subsection.2.3}\protected@file@percent }
\@writefile{toc}{\contentsline {subsubsection}{\numberline {2.3.1}Central tendency}{3}{subsubsection.2.3.1}\protected@file@percent }
\@writefile{toc}{\contentsline {subsubsection}{\numberline {2.3.2}Dispersion}{3}{subsubsection.2.3.2}\protected@file@percent }
\@writefile{toc}{\contentsline {subsubsection}{\numberline {2.3.3}Similarity and distance}{4}{subsubsection.2.3.3}\protected@file@percent }
\newlabel{eucliddist}{{8}{4}{Similarity and distance}{equation.2.8}{}}
\@writefile{lof}{\contentsline {figure}{\numberline {1}{\ignorespaces Comparison of common distance definitions\relax }}{4}{figure.caption.1}\protected@file@percent }
\@writefile{toc}{\contentsline {section}{\numberline {3}Preprocessing}{5}{section.3}\protected@file@percent }
\@writefile{toc}{\contentsline {subsection}{\numberline {3.1}Data cleaning}{5}{subsection.3.1}\protected@file@percent }
\@writefile{toc}{\contentsline {subsection}{\numberline {3.2}Data integration}{5}{subsection.3.2}\protected@file@percent }
\@writefile{toc}{\contentsline {subsection}{\numberline {3.3}Data reduction}{6}{subsection.3.3}\protected@file@percent }
\@writefile{lof}{\contentsline {figure}{\numberline {2}{\ignorespaces Illustration of projection of a 2D dataset into 2 orthogonal components. PC2 could be removed without much effect\relax }}{7}{figure.caption.2}\protected@file@percent }
\@writefile{toc}{\contentsline {subsection}{\numberline {3.4}Data transformations, discretisation}{7}{subsection.3.4}\protected@file@percent }
\@writefile{toc}{\contentsline {section}{\numberline {4}Data warehousing and OLAP}{8}{section.4}\protected@file@percent }
\@writefile{toc}{\contentsline {subsection}{\numberline {4.1}Data cubes}{8}{subsection.4.1}\protected@file@percent }
\@writefile{toc}{\contentsline {subsection}{\numberline {4.2}Measures and OLAP operations}{9}{subsection.4.2}\protected@file@percent }
\@writefile{toc}{\contentsline {subsection}{\numberline {4.3}Data warehouse implementation}{10}{subsection.4.3}\protected@file@percent }
\@writefile{toc}{\contentsline {section}{\numberline {5}Clustering and classification}{10}{section.5}\protected@file@percent }
\@writefile{toc}{\contentsline {subsection}{\numberline {5.1}Classification}{10}{subsection.5.1}\protected@file@percent }
\@writefile{toc}{\contentsline {subsubsection}{\numberline {5.1.1}Model performance measures}{10}{subsubsection.5.1.1}\protected@file@percent }
\@writefile{toc}{\contentsline {subsubsection}{\numberline {5.1.2}Validation}{11}{subsubsection.5.1.2}\protected@file@percent }
\@writefile{toc}{\contentsline {subsubsection}{\numberline {5.1.3}Common classifiers}{12}{subsubsection.5.1.3}\protected@file@percent }
\@writefile{toc}{\contentsline {subsection}{\numberline {5.2}Clustering}{12}{subsection.5.2}\protected@file@percent }
\@writefile{toc}{\contentsline {section}{\numberline {6}Association analysis}{13}{section.6}\protected@file@percent }
\@writefile{toc}{\contentsline {subsection}{\numberline {6.1}Frequent itemsets}{13}{subsection.6.1}\protected@file@percent }
\@writefile{toc}{\contentsline {subsection}{\numberline {6.2}Apriori algorithm}{14}{subsection.6.2}\protected@file@percent }
\@writefile{toc}{\contentsline {subsection}{\numberline {6.3}Association rules}{16}{subsection.6.3}\protected@file@percent }
\@writefile{toc}{\contentsline {section}{\numberline {7}Outlier detection}{17}{section.7}\protected@file@percent }
\@writefile{toc}{\contentsline {subsection}{\numberline {7.1}Outlier detection methods}{17}{subsection.7.1}\protected@file@percent }
\@writefile{toc}{\contentsline {subsubsection}{\numberline {7.1.1}Statistical methods}{17}{subsubsection.7.1.1}\protected@file@percent }
\@writefile{toc}{\contentsline {subsection}{\numberline {7.2}Proximity-based approaches}{19}{subsection.7.2}\protected@file@percent }
\@writefile{toc}{\contentsline {subsection}{\numberline {7.3}Clustering-based approaches}{19}{subsection.7.3}\protected@file@percent }
\@writefile{toc}{\contentsline {subsection}{\numberline {7.4}Classification approaches}{19}{subsection.7.4}\protected@file@percent }
\@writefile{toc}{\contentsline {subsection}{\numberline {7.5}Contextual outliers}{20}{subsection.7.5}\protected@file@percent }
\@writefile{toc}{\contentsline {section}{\numberline {8}Data mining applications}{20}{section.8}\protected@file@percent }
\@writefile{toc}{\contentsline {subsection}{\numberline {8.1}Web mining}{20}{subsection.8.1}\protected@file@percent }
\@writefile{toc}{\contentsline {subsubsection}{\numberline {8.1.1}Web crawlers and search}{21}{subsubsection.8.1.1}\protected@file@percent }
\@writefile{toc}{\contentsline {subsubsection}{\numberline {8.1.2}PageRank}{21}{subsubsection.8.1.2}\protected@file@percent }
\@writefile{toc}{\contentsline {subsubsection}{\numberline {8.1.3}HITS}{23}{subsubsection.8.1.3}\protected@file@percent }
\@writefile{toc}{\contentsline {subsection}{\numberline {8.2}Text mining}{23}{subsection.8.2}\protected@file@percent }
\@writefile{toc}{\contentsline {subsection}{\numberline {8.3}Time-series analysis}{25}{subsection.8.3}\protected@file@percent }
\@writefile{toc}{\contentsline {subsubsection}{\numberline {8.3.1}Missing data and noise removal}{25}{subsubsection.8.3.1}\protected@file@percent }
\gdef \@abspage@last{25}
