\relax 
\providecommand\hyper@newdestlabel[2]{}
\providecommand\HyperFirstAtBeginDocument{\AtBeginDocument}
\HyperFirstAtBeginDocument{\ifx\hyper@anchor\@undefined
\global\let\oldcontentsline\contentsline
\gdef\contentsline#1#2#3#4{\oldcontentsline{#1}{#2}{#3}}
\global\let\oldnewlabel\newlabel
\gdef\newlabel#1#2{\newlabelxx{#1}#2}
\gdef\newlabelxx#1#2#3#4#5#6{\oldnewlabel{#1}{{#2}{#3}}}
\AtEndDocument{\ifx\hyper@anchor\@undefined
\let\contentsline\oldcontentsline
\let\newlabel\oldnewlabel
\fi}
\fi}
\global\let\hyper@last\relax 
\gdef\HyperFirstAtBeginDocument#1{#1}
\providecommand\HyField@AuxAddToFields[1]{}
\providecommand\HyField@AuxAddToCoFields[2]{}
\@writefile{toc}{\contentsline {section}{\numberline {1}Descriptive statistics and probability distributions}{1}{section.1}\protected@file@percent }
\@writefile{toc}{\contentsline {subsection}{\numberline {1.1}Boolean probability rules}{1}{subsection.1.1}\protected@file@percent }
\@writefile{toc}{\contentsline {subsection}{\numberline {1.2}Bayes theorem}{2}{subsection.1.2}\protected@file@percent }
\@writefile{toc}{\contentsline {subsection}{\numberline {1.3}Binomial distribution}{3}{subsection.1.3}\protected@file@percent }
\@writefile{toc}{\contentsline {section}{\numberline {2}Descriptive statistics}{3}{section.2}\protected@file@percent }
\@writefile{toc}{\contentsline {subsection}{\numberline {2.1}Central tendency}{3}{subsection.2.1}\protected@file@percent }
\@writefile{toc}{\contentsline {subsection}{\numberline {2.2}Dispersion}{3}{subsection.2.2}\protected@file@percent }
\@writefile{toc}{\contentsline {subsection}{\numberline {2.3}Higher-order statistics}{4}{subsection.2.3}\protected@file@percent }
\@writefile{toc}{\contentsline {section}{\numberline {3}Probability distributions}{4}{section.3}\protected@file@percent }
\@writefile{toc}{\contentsline {subsection}{\numberline {3.1}Exponential distributions}{5}{subsection.3.1}\protected@file@percent }
\@writefile{toc}{\contentsline {subsection}{\numberline {3.2}Extreme value distributions}{5}{subsection.3.2}\protected@file@percent }
\@writefile{toc}{\contentsline {subsection}{\numberline {3.3}Heavy-tailed distributions}{6}{subsection.3.3}\protected@file@percent }
\@writefile{toc}{\contentsline {section}{\numberline {4}Fitting probability distributions}{7}{section.4}\protected@file@percent }
\@writefile{toc}{\contentsline {subsubsection}{\numberline {4.0.1}Finding the distribution}{8}{subsubsection.4.0.1}\protected@file@percent }
\@writefile{lof}{\contentsline {figure}{\numberline {2}{\ignorespaces Histogram of example dataset\relax }}{8}{figure.caption.7}\protected@file@percent }
\@writefile{toc}{\contentsline {section}{\numberline {5}Time series analysis}{8}{section.5}\protected@file@percent }
\@writefile{lof}{\contentsline {figure}{\numberline {3}{\ignorespaces Histogram of example dataset\relax }}{9}{figure.caption.8}\protected@file@percent }
\@writefile{lof}{\contentsline {figure}{\numberline {4}{\ignorespaces Qq plots of various distributions\relax }}{9}{figure.caption.9}\protected@file@percent }
\@writefile{lof}{\contentsline {figure}{\numberline {5}{\ignorespaces CCDF of the dataset (red) and normal distribution (black)\relax }}{9}{figure.caption.10}\protected@file@percent }
\@writefile{toc}{\contentsline {subsection}{\numberline {5.1}Correlation, autocorrelation}{10}{subsection.5.1}\protected@file@percent }
\@writefile{toc}{\contentsline {subsection}{\numberline {5.2}Stationarity}{12}{subsection.5.2}\protected@file@percent }
\@writefile{toc}{\contentsline {subsection}{\numberline {5.3}Time series decomposition}{12}{subsection.5.3}\protected@file@percent }
\@writefile{toc}{\contentsline {subsection}{\numberline {5.4}Models}{13}{subsection.5.4}\protected@file@percent }
\@writefile{toc}{\contentsline {subsection}{\numberline {5.5}General steps for time series forecasting}{13}{subsection.5.5}\protected@file@percent }
\gdef \@abspage@last{13}
